------ Push các file có kích thước lớn lên Git -----

apt-get install git-lfs -y
cd cross_ai7688/
git lfs track "*.sh"
git lfs track "*.zip"  
git status
git add .
git commit -m "comment"
git push origin main

/////////////////////////////////////////////////////

----- Git clone về và sử dụng -----

git clone <repository-url>
apt-get install -y git-lfs
cd cross_ai7688/
git lfs pull
